{
    "records": [
        {
            "username": "SYSTEM",
            "type": "ADMIN",
            "name": "system",
            "surname": "system",
            "gender": "M",
            "created": 1495016019419,
            "updated": 1495016019000,
            "userupdate": "SYSTEM",
            "active": true,
            "email": "system@hsangiovanni.roma.it",
            "idd": "SYSTEM"
        },
        {
            "username": "seyrankhamidov",
            "type": "EXTERNAL",
            "name": "Seyran",
            "surname": "Khamidov",
            "gender": "M",
            "created": 1525766056167,
            "updated": 1525766056167,
            "userupdate": "SYSTEM",
            "active": true,
            "email": "seyran@khamidov.it",
            "idd": "seyrankhamidov"
        },
        {
            "username": "robertobaggio",
            "type": "EXTERNAL",
            "name": "roberto",
            "surname": "baggio",
            "gender": "M",
            "created": 1525766162134,
            "updated": 1525766162134,
            "userupdate": "SYSTEM",
            "active": true,
            "email": "baggiogol@calcio.it",
            "idd": "robertobaggio"
        },
        {
            "username": "ringhiogattuso",
            "type": "EXTERNAL",
            "name": "ringhio",
            "surname": "gattuso",
            "gender": "M",
            "created": 1525766263837,
            "updated": 1525766263837,
            "userupdate": "SYSTEM",
            "active": true,
            "email": "gattuso@gol.it",
            "idd": "ringhiogattuso"
        },
        {
            "username": "riccardotoni",
            "type": "EXTERNAL",
            "name": "Riccardo",
            "surname": "Toni",
            "gender": "M",
            "created": 1525765929539,
            "updated": 1525765929539,
            "userupdate": "SYSTEM",
            "active": true,
            "email": "coolio@io.co.uk",
            "idd": "riccardotoni"
        },
        {
            "username": "mario rossi",
            "type": "EXTERNAL",
            "name": "Mario ",
            "surname": "Rossi",
            "gender": "M",
            "created": 1525766019076,
            "updated": 1525766019076,
            "userupdate": "SYSTEM",
            "active": true,
            "email": "a@b.it",
            "idd": "mario rossi"
        },
        {
            "username": "lmartini",
            "type": "EXTERNAL",
            "name": "Luca",
            "surname": "Martini",
            "gender": "M",
            "taxcode": "MRTLCU80C06H501O",
            "phonenumber": "3922664653",
            "created": 1488814689358,
            "updated": 1488814689358,
            "userupdate": "SYSTEM",
            "active": true,
            "alternativephonenumber": "3922664653",
            "email": "luca.martini@yahoo.it",
            "idd": "lmartini"
        },
        {
            "username": "francescototti",
            "type": "EXTERNAL",
            "name": "Francesco",
            "surname": "Totti",
            "gender": "M",
            "created": 1525766135144,
            "updated": 1525766135144,
            "userupdate": "SYSTEM",
            "active": true,
            "email": "Francescogol@roma.it",
            "idd": "francescototti"
        },
        {
            "username": "francescode palma",
            "type": "EXTERNAL",
            "name": "Francesco",
            "surname": "De Palma",
            "gender": "M",
            "created": 1525766043616,
            "updated": 1525766043616,
            "userupdate": "SYSTEM",
            "active": true,
            "email": "thapalma@yo.it",
            "idd": "francescode palma"
        },
        {
            "username": "francescabianchi",
            "type": "EXTERNAL",
            "name": "Francesca",
            "surname": "bianchi",
            "gender": "F",
            "created": 1525766216884,
            "updated": 1525766216884,
            "userupdate": "SYSTEM",
            "active": true,
            "email": "bianchi@francesca.it",
            "idd": "francescabianchi"
        }
    ],
    "pageSize": 10,
    "currentPage": 1,
    "totalPages": 2,
    "totalElements": 12
}
